Modulo_2-RTL_y_Simulacion/Ejercicio_2/adder8.vcd
$version Generated by VerilatedVcd $end
$timescale 1ps $end
 $scope module tb_adder8 $end
  $var real 64 2 T_CLK_HI $end
  $var real 64 2 T_CLK_LO $end
  $var real 64 4 T_CLK $end
  $var real 64 6 T_APPL_DEL $end
  $var real 64 2 T_ACQ_DEL $end
  $var wire 32 8 NUM_VECTOR [31:0] $end
  $var wire 168 9 STIMULI_FILE [167:0] $end
  $var wire 248 ? RESPONSE_FILE [247:0] $end
  $var wire 1 # eoc $end
  $var wire 1 * clk $end
  $var wire 1 + rst_n $end
  $var wire 8 $ a [7:0] $end
  $var wire 8 % b [7:0] $end
  $var wire 8 , sum [7:0] $end
  $var wire 1 - carry_out $end
  $scope module actual_response $end
   $var wire 1 . carry_out $end
   $var wire 8 / sum [7:0] $end
  $upscope $end
  $var wire 32 & load_stimuli__Vstatic__file [31:0] $end
  $var wire 32 ' load_stimuli__Vstatic__temp [31:0] $end
  $var wire 32 0 load_exp_response__Vstatic__file [31:0] $end
  $var wire 32 1 load_exp_response__Vstatic__temp [31:0] $end
  $scope module i_dut $end
   $var wire 1 * clk_i $end
   $var wire 1 + rst_ni $end
   $var wire 8 $ a_i [7:0] $end
   $var wire 8 % b_i [7:0] $end
   $var wire 8 , sum_o [7:0] $end
   $var wire 1 - carry_o $end
   $var wire 8 ( sum_d [7:0] $end
   $var wire 8 , sum_q [7:0] $end
   $var wire 1 G carry_d $end
   $var wire 1 - carry_q $end
   $var wire 8 ( temp_result [7:0] $end
  $upscope $end
  $scope module stim_apply $end
   $scope module unnamedblk1 $end
    $var wire 32 ) i [31:0] $end
   $upscope $end
  $upscope $end
 $upscope $end
$enddefinitions $end


#0
0#
b00000000 $
b00000000 %
b10000000000000000000000000101100 &
b00000000000000000101110011110001 '
b00000000 (
b00000000000000000000000000000000 )
1*
0+
b00000000 ,
0-
0.
b00000000 /
b10000000000000000000000000101100 0
b00000000000000000000000010011011 1
r5 2
r10 4
r1 6
b00000000000000000000000000100000 8
b001011100010111101110011011101000110100101101101011101010110110001101001001011110111001101110100011010010110110101110101011011000110100100101110011101000111100001110100 9
b00101110001011110111001101110100011010010110110101110101011011000110100100101111011001010111100001110000011001010110001101110100011001010110010001011111011100100110010101110011011100000110111101101110011100110110010100101110011101000111100001110100 ?
0G
#5000
0*
#10000
1*
1+
#11000
b11001101 $
b11010110 %
b10100011 (
b00000000000000000000000000000001 )
#15000
0*
#20000
1*
b10100011 ,
#21000
b11000001 $
b10101010 %
b01101011 (
b00000000000000000000000000000010 )
#25000
0*
b10100011 /
#30000
1*
b01101011 ,
#31000
b00011010 $
b00101001 %
b01000011 (
b00000000000000000000000000000011 )
#35000
0*
b01101011 /
#40000
1*
b01000011 ,
#41000
b10101011 $
b10001101 %
b00111000 (
b00000000000000000000000000000100 )
#45000
0*
b01000011 /
#50000
1*
b00111000 ,
#51000
b00111110 $
b10011100 %
b11011010 (
b00000000000000000000000000000101 )
#55000
0*
b00111000 /
#60000
1*
b11011010 ,
#61000
b11101010 $
b11101001 %
b11010011 (
b00000000000000000000000000000110 )
#65000
0*
b11011010 /
#70000
1*
b11010011 ,
#71000
b00011000 $
b11001010 %
b11100010 (
b00000000000000000000000000000111 )
#75000
0*
b11010011 /
#80000
1*
b11100010 ,
#81000
b10100000 $
b10110111 %
b01010111 (
b00000000000000000000000000001000 )
#85000
0*
b11100010 /
#90000
1*
b01010111 ,
#91000
b10010000 $
b10100011 %
b00110011 (
b00000000000000000000000000001001 )
#95000
0*
b01010111 /
#100000
1*
b00110011 ,
#101000
b00100110 $
b11101000 %
b00001110 (
b00000000000000000000000000001010 )
#105000
0*
b00110011 /
#110000
1*
b00001110 ,
#111000
b11000000 $
b10100011 %
b01100011 (
b00000000000000000000000000001011 )
#115000
0*
b00001110 /
#120000
1*
b01100011 ,
#121000
b00111100 $
b10010001 %
b11001101 (
b00000000000000000000000000001100 )
#125000
0*
b01100011 /
#130000
1*
b11001101 ,
#131000
b11011100 $
b10111001 %
b10010101 (
b00000000000000000000000000001101 )
#135000
0*
b11001101 /
#140000
1*
b10010101 ,
#141000
b00111101 $
b10101010 %
b11100111 (
b00000000000000000000000000001110 )
#145000
0*
b10010101 /
#150000
1*
b11100111 ,
#151000
b11011001 $
b01101010 %
b01000011 (
b00000000000000000000000000001111 )
#155000
0*
b11100111 /
#160000
1*
b01000011 ,
#161000
b10010110 $
b01010111 %
b11101101 (
b00000000000000000000000000010000 )
#165000
0*
b01000011 /
#170000
1*
b11101101 ,
#171000
b00010001 $
b11000000 %
b11010001 (
b00000000000000000000000000010001 )
#175000
0*
b11101101 /
#180000
1*
b11010001 ,
#181000
b10110101 $
b10101010 %
b01011111 (
b00000000000000000000000000010010 )
#185000
0*
b11010001 /
#190000
1*
b01011111 ,
#191000
b00001001 $
b01010001 %
b01011010 (
b00000000000000000000000000010011 )
#195000
0*
b01011111 /
#200000
1*
b01011010 ,
#201000
b01001011 $
b01011010 %
b10100101 (
b00000000000000000000000000010100 )
#205000
0*
b01011010 /
#210000
1*
b10100101 ,
#211000
b00010011 $
b10000111 %
b10011010 (
b00000000000000000000000000010101 )
#215000
0*
b10100101 /
#220000
1*
b10011010 ,
#221000
b10000010 $
b00011101 %
b10011111 (
b00000000000000000000000000010110 )
#225000
0*
b10011010 /
#230000
1*
b10011111 ,
#231000
b10111001 $
b10101000 %
b01100001 (
b00000000000000000000000000010111 )
#235000
0*
b10011111 /
#240000
1*
b01100001 ,
#241000
b01101111 $
b11101001 %
b01011000 (
b00000000000000000000000000011000 )
#245000
0*
b01100001 /
#250000
1*
b01011000 ,
#251000
b10000010 $
b01100100 %
b11100110 (
b00000000000000000000000000011001 )
#255000
0*
b01011000 /
#260000
1*
b11100110 ,
#261000
b01011001 $
b01111111 %
b11011000 (
b00000000000000000000000000011010 )
#265000
0*
b11100110 /
#270000
1*
b11011000 ,
#271000
b11011001 $
b00000100 %
b11011101 (
b00000000000000000000000000011011 )
#275000
0*
b11011000 /
#280000
1*
b11011101 ,
#281000
b01001001 $
b00010010 %
b01011011 (
b00000000000000000000000000011100 )
#285000
0*
b11011101 /
#290000
1*
b01011011 ,
#291000
b10111001 $
b00010100 %
b11001101 (
b00000000000000000000000000011101 )
#295000
0*
b01011011 /
#300000
1*
b11001101 ,
#301000
b01001001 $
b01111111 %
b11001000 (
b00000000000000000000000000011110 )
#305000
0*
b11001101 /
#310000
1*
b11001000 ,
#311000
b11111111 $
b01110100 %
b01110011 (
b00000000000000000000000000011111 )
#315000
0*
b11001000 /
#320000
1*
b01110011 ,
#321000
b01011100 $
b11110001 %
b01001101 (
b00000000000000000000000000100000 )
#325000
0*
b01110011 /
#330000
1*
b01001101 ,
#335000
0*
b01001101 /
#340000
1*
#345000
0*
#346000
1#
